[FUSIONS]
f1 :  ENST00000390652(10,10);ENST00000358598(2,3)
[GLOBAL]
reference=/data/genomes/ensemble68/human_genome_17_20.fa
annotations=/data/annotations/Homo_sapiens.GRCh37.68.17_20.bed
outdir=case04
numreads=200

